{
  "gitlab_shell": {
    "secret_token": "fd5b0184410ef4171b5e4118350230c142a26b8ae9c4cc8bc14fe9b8000f75fb1f2ec4db1c5b7fe8bff1beb829711f4e421aa387539467a42f189e49d0f09496"
  },
  "gitlab_rails": {
    "secret_token": "fe7267c42a1e243475f9d8f46fb497cb111acff130f8c6f5d4a2de719ca480ea7088100b9b0e1caf1f2d4c5608f52dc039858459f6a8f651a29fb70da8855257"
  },
  "gitlab_ci": {
    "secret_token": null,
    "secret_key_base": "61c377c72256c5f23719f7277ea7857c313b911009d9f4e39039e2fcd2281a2f13194c518a25f3706e39d2244544855a275eeeff0d8974c2c34be59343b0cf07",
    "db_key_base": "49f4a3987a02d929143da921789e74e3581822cabcf7761128fd6b91e52ec9e61e91689717950a0b224fb890c2b3fdedd6a6d500faaf3881e77d83d70cb1265a"
  },
  "registry": {
    "http_secret": "568ec646edbc02dc1052cf5e190e3bba06c27580ca45933912573ea9880d99ad21561e98eaf55103321e482a923b37cd6ff5446e365101fd36546b85e8a68934",
    "internal_certificate": "-----BEGIN CERTIFICATE-----\nMIIFBTCCAu2gAwIBAgIBADANBgkqhkiG9w0BAQsFADBGMQwwCgYDVQQGEwNVU0Ex\nDzANBgNVBAoMBkdpdExhYjESMBAGA1UECwwJQ29udGFpbmVyMREwDwYDVQQDDAhS\nZWdpc3RyeTAeFw0xNjA4MTgxNzA3MThaFw0yNjA4MTYxNzA3MThaMEYxDDAKBgNV\nBAYTA1VTQTEPMA0GA1UECgwGR2l0TGFiMRIwEAYDVQQLDAlDb250YWluZXIxETAP\nBgNVBAMMCFJlZ2lzdHJ5MIICIjANBgkqhkiG9w0BAQEFAAOCAg8AMIICCgKCAgEA\nvvAtRVu0F2SlvaBufgUW55dgz3KtNCCzvFB6a5LUYaL7z5P7u1Ekbm3lCdmubfup\n0CUtLwLXNLjYrvCCo4oh+CdZqgxl3cBF3GuzS8Z9z0jGg38Y+jS08Zc5awvKivLc\nm7YKm7bvYjd+11hZ75It1BuqdP3QkEjhj7CPo3cxdhql+ez8iZOsBhqxWf40JBUS\noooIF/nk/9kpwPQORYFPd8xy0BUKvi01jVtOrppM91hmn4CfiwG01a1pTWGbYuFz\nxcQQ3T5GOo2Qc94uPJrV20g23Yby4OIQeaVEkR10rty3AkV3mgE1Fy1CDCHPKRPB\nP2ZcYAEsCUxzeMWb4yfbzLV3lPt9flMRvI34NTf1Tyc7h59hPTDcVbHdUwp0TwZH\nkbVvbHrkdM5emjR5vJA465yTIb8H9JM9CNw/T6ax/EqcQ2ina9XtetjAyr09hnIA\nk1om/YEwfJLpgxDfMpwtabK+U9wSW2IAH5qY3Fys0StmizxZFDZE3lNWP5PDiYAf\nmSu3RfMwXkuQ/Fb5aufObzz5avyB/ZbIptK7hxl1WAPj7ctmZU+BTZ1cXzMvlvGQ\nPoDFp+z9BXFW7IgwMCl4iDYcrDw85nm3ZzaE/iqORIumoCk8Fm26md5EZaHFBQdY\nWNL4icn2eDNib+drRJb7bGHXqCAagI3uFNEXXn+4pzkCAwEAATANBgkqhkiG9w0B\nAQsFAAOCAgEADqxWiTSU+oZ1iH9UP2O6cDynrshbHEwj9gqgUsVvgpgqhtdnFazx\nwanCCWo7VcaSurw5RRU9wbWoL20Ub3qC/e7yiXKkbSzyFsbDyYcij5SGRhvJpqcj\nQRI6aBZu9RtP5W8hN+E/B2kCSXQjhEKtfPyPfYR3KDiBD6wHUzyp7Av7yipydItZ\nxkjs7pW4vkvUVFTCFAUZhgXBE5CdoyB9n385vTXmSRnmFZHxD3VVcHsWXAxYG6YB\njyHNtn0/EgDJSfFQQ5n6qsTcQtf1TCN4xECiBbJ+TJZQfKf1yGUdxRNSNILmfHJt\nbvVrdlBW1jgMHxyoAkmBxls+LnuH9tefSkrMbg88SgBUx66tJ1RD8IS4LV9zlwXm\nz65rmekMd9d6aI3RfT3Gqxn+8usp3tPLjc6AId+kHkXOqIH9jePsdRX/5Un0xanE\nMLEDUqC8dJ30D3o+lawJ7WB4PzygddsQoUInF1yZ+yFpUaP8nMC0IL9Trl6yRo5u\nxWh9q5O5MHdgR4f4BGHdie+a/QsC6xHnBpzRvUiLz7O4ZKElwo4XaUcxtHMp8rLJ\n/sVLNb0qQd/f+KN6y6jin/zTUr3M6RS3wnemZW7LtKNpiQB4wPEdStCdsaC0TxNT\n7/4iZlcXR8FwPtGBK+vnmuGqhRKFM6dLq913Tn3uEWhYoYenJ4m+kns=\n-----END CERTIFICATE-----\n",
    "internal_key": "-----BEGIN RSA PRIVATE KEY-----\nMIIJKAIBAAKCAgEAvvAtRVu0F2SlvaBufgUW55dgz3KtNCCzvFB6a5LUYaL7z5P7\nu1Ekbm3lCdmubfup0CUtLwLXNLjYrvCCo4oh+CdZqgxl3cBF3GuzS8Z9z0jGg38Y\n+jS08Zc5awvKivLcm7YKm7bvYjd+11hZ75It1BuqdP3QkEjhj7CPo3cxdhql+ez8\niZOsBhqxWf40JBUSoooIF/nk/9kpwPQORYFPd8xy0BUKvi01jVtOrppM91hmn4Cf\niwG01a1pTWGbYuFzxcQQ3T5GOo2Qc94uPJrV20g23Yby4OIQeaVEkR10rty3AkV3\nmgE1Fy1CDCHPKRPBP2ZcYAEsCUxzeMWb4yfbzLV3lPt9flMRvI34NTf1Tyc7h59h\nPTDcVbHdUwp0TwZHkbVvbHrkdM5emjR5vJA465yTIb8H9JM9CNw/T6ax/EqcQ2in\na9XtetjAyr09hnIAk1om/YEwfJLpgxDfMpwtabK+U9wSW2IAH5qY3Fys0StmizxZ\nFDZE3lNWP5PDiYAfmSu3RfMwXkuQ/Fb5aufObzz5avyB/ZbIptK7hxl1WAPj7ctm\nZU+BTZ1cXzMvlvGQPoDFp+z9BXFW7IgwMCl4iDYcrDw85nm3ZzaE/iqORIumoCk8\nFm26md5EZaHFBQdYWNL4icn2eDNib+drRJb7bGHXqCAagI3uFNEXXn+4pzkCAwEA\nAQKCAgBtGMJlLN6btzBURwSbEMFjlkUEgxuf+0d3Q+yO5phfKUcD9iQRhW1xg20o\n0a4uvWrruTI1+EOKpkt4uYeLdfOu3J0I4oiZybChHxCVLVbZR1XV8JsO62qv155B\nIb2a4uVWOw+YpU/mKJta4+qPTlDNLvmYWyX+KwZmmZWY6xPhzZwkT1qEKVJTMpE/\nQFX+f+Pj50Z0nJ5R6X1H+Krm39nOM40ug7ddrms414D/lr5/XY1VeaKvRExVAv51\n7l1ghD0oNL0GDP0Hm7d73OlCS54B6yMeNGs2PzT2rI2e9NukxgvzSknqPuJc2ckx\nMWgyqkzyssP5PvIwZfRcf1xw0GdvdVpxf5stjWtX1H7uWnU/+2uJMgU6qJkJkOST\nsjFv+Ne3YRpnLANXg7Kftc7sw66YqFaq/ewIncW/CvS8hw+ekX0HorakFsHgMFTg\nLWASo8H+ne+UP3OBFMHsh2wiiKctRaol2EFj6AmpWg4nkTkddDwOSUxED1trpvvZ\nommg8C0nMLDK9bs6wnObThyqwv2ifxb5qHEmnSAuBi2eNLNLqJSzVhM7zqy07UnA\nZ+ooHTF5lhAvOKiO+BkiuPbtJv+jnzJJVUsLsTAGBYEwfumBcayIb5VfxI0G8fY1\nVHtBP+SzdKHxXJlOs95EXKZGljIvZnq4ipTyc3+HYtMpoQGeuQKCAQEA4GWHmR6m\nM6ptrLcMpSy5dPsJHhM+84dr8Y2XJHM/qy2G0p5SJ3vTVpADVBuIWURT41Rrsqdu\nkVnuJgwwG3eKDTbXGsFLSy/pnF7/D007wZAfbrF64FLhHpTWbJTz3zDT43a8kttI\n3XZAAHOt7JDFpOK0iTatyNKFNlEg0ZYjaXxVUCm+vO5taIf8/3SwgYxp6fy7AdNX\nh4Ox3VMKqcDMeJ4+Prf8T4Isdkr7KcZlQ9MOGUeRbrFv5AoHGEVCS5nxL7cO8J/l\nP4M80sODDLZVg6sHz+Ies2n23hepWvGmcO3KdSFh4/sWs0gHdGMLqKP15Fkc6lg/\ndAJlWyK8N9XPjwKCAQEA2dRTkUqrKWR0odj22UjLLjqATJ6eSJKvyrA08MHOtTkG\nKcgCJilCbvIoLTu+eN0goAzZphwIGAVyBdi4gV56KaCznGFUSOe2/FSOgS9khMpn\nslFwiCyCt9ddsrzkxyzPegvGXAVQql/xRQU3aWQ05Aq0r4jbQJ3LR8Poxo7IURbc\ncxrQW+lrIDgrx/cxVGlxkYt0vO3oEjQhlb2Ol4nF/z6MipJeGmxMMgBwNUGmx2R1\noknAnvmr8aHeU5bvW4hnlmpeeH/OYDP6xQ7zx8IU8DugCFAPJnMRn1Ii0dJVCTOb\n00u7abQKMKuBKfWJXb6BaRDkkWYeUGTkBHc8SuY4twKCAQB9b+QD8UEhIoUahlzY\nPI8TWH05RbLr+Wia5/Z0VsRhkRqLxBrSnYJ/IhPqQVXP6MUoD/oALV4+fFIHDMsb\nn5AZYO2PtDu9tPPXCLd1u0vLISChBS9WFJ5pNPREUGOfATGBNs+lHFW4DrEqT4AK\n/MavLFeVWG5/E0eKHIHHBzGWdv1NyXgpLvMT+uiveHBuiqpuNWvoUlbclv6nZRNR\n30etqW/MKZcubush2TpbmN7ksidwdDRU93U/uWdL5vNvRYewj5kXY5qIDXnDq60n\nPwnAh6vfRly5GGP6tKlkAC91c0e4gEezZJnE8F/SbMeIptb+pd3nFhuqYuh7sIgc\ngjX7AoIBAHBVS+dAb3ZAJNmWLu6s2IL1jlZ08kGQy/El35dNCxFv39rKFzmgy261\nmLyC894Wgw2mstMz34Srwjp7oeKtWyh+hEGf+7xBKp+D5519WEQWsVVHJFZFRgAS\no3JacUy5siFJUzj/ULMcGSsz3niOQaxcTQO8+vyeo0dWI4PJ/Em9FWCSsmLDxAfw\nj7tmodzbJ8Mb/M61jZldovg6sf86AI55rjaD9t1/fefHTBZazexDxVo02I3jSaWp\niSLoUnWMqYbrQd64YjBAfhEDffpE/1FIHmZLCxUUAEF+NRCpfErrf29+vZ5sR1kE\nCO8ffYCHjusk2AqXdAiXjvMynjgt848CggEBAK2Ph1YddSbzTxJ3DB2vewHR1+Za\nyHgWiK2OtxIXGri7MOjvM/NbT9/UWpC+XBWRztaq2LCOMC1Rf2Lfx7jhlhj8Jm5A\nEecuvttQhueHLF1a5jTeecJ52EOwigJHqvj1sAUQcDLGLW/8OBdV8ipsLE4b/0tz\nGYhlupaliyZ62afhA/TXfvB4Wg/lAx8cpHMLt/88bbPfRoiDXoWe72n/Dr1krljA\n1oYnmrpTNEpBgaBpkBZFbfp1Cu+ZD1+ebqiucds7lnfEtTPIY5dIuF2oEN4QkbRM\n67qcH5zwJxV6/OmEp2CGbu+AVbI68RYb5zO7cJ+OEvlYgoRpw4O9mihKjnQ=\n-----END RSA PRIVATE KEY-----\n"
  },
  "mattermost": {
    "email_invite_salt": "f43abaf7fc8a09efba5d6238bf11f1a3",
    "file_public_link_salt": "25743772a6cdae2104a0fca62997eec5",
    "email_password_reset_salt": "83eec9158cfb6d3f32156167733517f7",
    "sql_at_rest_encrypt_key": "b128fd246bf3229c735188bf5f878147"
  }
}
